{
  "standard": [
    {
      "opt_name": "--prop_solver_per_cl",
      "opt_type": "ordinal",
      "opt_domain": "32, 64, 128, 512, 1024, 2048, 4096, 8192, 16384, 32768",
      "default_val": "1024",
      "possible_condition": ""
    },
    {
      "opt_name": "--extra_neg_conj",
      "opt_type": "categorical",
      "opt_domain": "none, all_pos, all_pos_neg, all_neg",
      "default_val": "none",
      "possible_condition": ""
    },
    {
      "opt_name": "--comb_mode",
      "opt_type": "categorical",
      "opt_domain": "clause_based, time_based",
      "default_val": "clause_based",
      "possible_condition": ""
    },
    {
      "opt_name": "--subs_bck_mult",
      "opt_type": "ordinal",
      "opt_domain": "-1, 0, 1, 2, 4, 8, 16, 32, 64, 128",
      "default_val": "-1",
      "possible_condition": ""
    },
    {
      "opt_name": "--share_sel_clauses",
      "opt_type": "categorical",
      "opt_domain": "true, false",
      "default_val": "true",
      "possible_condition": ""
    },
    {
      "opt_name": "--conj_cone_tolerance",
      "opt_type": "real",
      "opt_domain": "1, 5",
      "default_val": "3",
      "possible_condition": ""
    },
    {
      "opt_name": "--prolific_symb_bound",
      "opt_type": "ordinal",
      "opt_domain": "32, 64, 128, 256, 512, 1024, 2048, 3000, 4096, 8192, 16384, 32768",
      "default_val": "256",
      "possible_condition": ""
    }
  ],
  "prep": [
    {
      "opt_name": "--preprocessing_flag",
      "opt_type": "categorical",
      "opt_domain": "true, false",
      "default_val": "true",
      "possible_condition": ""
    },
    {
      "opt_name": "--time_out_prep_mult",
      "opt_type": "real",
      "opt_domain": "0, 1",
      "default_val": "0.1",
      "possible_condition": "time_out_prep_mult | preprocessing_flag == true"
    },
    {
      "opt_name": "--splitting_mode",
      "opt_type": "categorical",
      "opt_domain": "none, input, full",
      "default_val": "input",
      "possible_condition": "splitting_mode | preprocessing_flag == true"
    },
    {
      "opt_name": "--splitting_grd",
      "opt_type": "categorical",
      "opt_domain": "true, false",
      "default_val": "true",
      "possible_condition": "splitting_grd | preprocessing_flag == true && splitting_mode == input || preprocessing_flag == true && splitting_mode == full"
    },
    {
      "opt_name": "--splitting_cvd",
      "opt_type": "categorical",
      "opt_domain": "true, false",
      "default_val": "true",
      "possible_condition": "splitting_cvd | preprocessing_flag == true && splitting_mode == input || preprocessing_flag == true && splitting_mode == full"
    },
    {
      "opt_name": "--splitting_cvd_svl",
      "opt_type": "categorical",
      "opt_domain": "true, false",
      "default_val": "true",
      "possible_condition": "splitting_cvd_svl | preprocessing_flag == true && splitting_mode == input || preprocessing_flag == true && splitting_mode == full"
    },
    {
      "opt_name": "--splitting_nvd",
      "opt_type": "ordinal",
      "opt_domain": "4, 8, 16, 32, 64, 128, 256, 512, 1024",
      "default_val": "32",
      "possible_condition": "splitting_nvd | preprocessing_flag == true && splitting_mode == input || preprocessing_flag == true && splitting_mode == full"
    },
    {
      "opt_name": "--sub_typing",
      "opt_type": "categorical",
      "opt_domain": "true, false",
      "default_val": "true",
      "possible_condition": "sub_typing | preprocessing_flag == true"
    },
    {
      "opt_name": "--prep_gs_sim",
      "opt_type": "categorical",
      "opt_domain": "true, false",
      "default_val": "true",
      "possible_condition": "prep_gs_sim | preprocessing_flag == true"
    },
    {
      "opt_name": "--prep_unflatten",
      "opt_type": "categorical",
      "opt_domain": "true, false",
      "default_val": "true",
      "possible_condition": "prep_unflatten | preprocessing_flag == true"
    },
    {
      "opt_name": "--prep_res_sim",
      "opt_type": "categorical",
      "opt_domain": "true, false",
      "default_val": "true",
      "possible_condition": "prep_res_sim | preprocessing_flag == true"
    },
    {
      "opt_name": "--prep_sup_sim_sup",
      "opt_type": "categorical",
      "opt_domain": "true, false",
      "default_val": "true",
      "possible_condition": "prep_sup_sim_sup | preprocessing_flag == true"
    },
    {
      "opt_name": "--prep_sup_sim_all",
      "opt_type": "categorical",
      "opt_domain": "true, false",
      "default_val": "true",
      "possible_condition": "prep_sup_sim_all | preprocessing_flag == true"
    },
    {
      "opt_name": "--prep_upred",
      "opt_type": "categorical",
      "opt_domain": "true, false",
      "default_val": "true",
      "possible_condition": "prep_upred | preprocessing_flag == true"
    },
    {
      "opt_name": "--prep_sem_filter",
      "opt_type": "categorical",
      "opt_domain": "none, pos, neg, exhaustive",
      "default_val": "exhaustive",
      "possible_condition": "prep_sem_filter | preprocessing_flag == true"
    },
    {
      "opt_name": "--pred_elim",
      "opt_type": "categorical",
      "opt_domain": "true, false",
      "default_val": "true",
      "possible_condition": "pred_elim | preprocessing_flag == true"
    },
    {
      "opt_name": "--res_sim_input",
      "opt_type": "categorical",
      "opt_domain": "true, false",
      "default_val": "true",
      "possible_condition": "res_sim_input | preprocessing_flag == true && resolution_flag == true"
    },
    {
      "opt_name": "--eq_ax_congr_red",
      "opt_type": "categorical",
      "opt_domain": "true, false",
      "default_val": "true",
      "possible_condition": "eq_ax_congr_red | preprocessing_flag == true"
    },
    {
      "opt_name": "--pure_diseq_elim",
      "opt_type": "categorical",
      "opt_domain": "true, false",
      "default_val": "true",
      "possible_condition": "pure_diseq_elim | preprocessing_flag == true"
    },
    {
      "opt_name": "--prep_def_merge",
      "opt_type": "categorical",
      "opt_domain": "true, false",
      "default_val": "true",
      "possible_condition": "prep_def_merge | preprocessing_flag == true"
    },
    {
      "opt_name": "--prep_def_merge_prop_impl",
      "opt_type": "categorical",
      "opt_domain": "true, false",
      "default_val": "true",
      "possible_condition": "prep_def_merge_prop_impl | prep_def_merge == true"
    },
    {
      "opt_name": "--prep_def_merge_mbd",
      "opt_type": "categorical",
      "opt_domain": "true, false",
      "default_val": "true",
      "possible_condition": "prep_def_merge_mbd | prep_def_merge == true"
    },
    {
      "opt_name": "--prep_def_merge_tr_red",
      "opt_type": "categorical",
      "opt_domain": "true, false",
      "default_val": "false",
      "possible_condition": "prep_def_merge_tr_red | prep_def_merge == true"
    },
    {
      "opt_name": "--prep_def_merge_tr_cl",
      "opt_type": "categorical",
      "opt_domain": "true, false",
      "default_val": "false",
      "possible_condition": "prep_def_merge_tr_cl | prep_def_merge == true && prep_def_merge_tr_red == false"
    },
    {
      "opt_name": "--smt_preprocessing",
      "opt_type": "categorical",
      "opt_domain": "true, false",
      "default_val": "true",
      "possible_condition": "smt_preprocessing | preprocessing_flag == true"
    },
    {
      "opt_name": "--smt_ac_axioms",
      "opt_type": "categorical",
      "opt_domain": "full, fast, off",
      "default_val": "fast",
      "possible_condition": "smt_ac_axioms | preprocessing_flag == true"
    }
  ],
  "sine": [
    {
      "opt_name": "--clausifier_sine_flag",
      "opt_type": "categorical",
      "opt_domain": "true, false",
      "default_val": "true",
      "possible_condition": ""
    },
    {
      "opt_name": "--clausifier_sine_sd",
      "opt_type": "ordinal",
      "opt_domain": "0, 1, 2, 4, 8, 16, 32, 64",
      "default_val": "1",
      "possible_condition": "clausifier_sine_sd | clausifier_sine_flag == true"
    },
    {
      "opt_name": "--clausifier_sine_st",
      "opt_type": "ordinal",
      "opt_domain": "1, 1.2, 1.4, 1.8, 2, 3, 4",
      "default_val": "1",
      "possible_condition": "clausifier_sine_st | clausifier_sine_flag == true"
    }
  ],
  "abstr_ref": [
    {
      "opt_name": "--abstr_ref_len",
      "opt_type": "ordinal",
      "opt_domain": "0, 1, 2, 3, 4",
      "default_val": "0",
      "possible_condition": "abstr_ref_len | splitting_mode == input ||  splitting_mode == none"
    },
    {
      "opt_name": "--abstr_ref_metric_1",
      "opt_type": "categorical",
      "opt_domain": "sig, subs, arg_filter, gen",
      "default_val": "sig",
      "possible_condition": "abstr_ref_metric_1 | abstr_ref_len > 0"
    },
    {
      "opt_name": "--abstr_ref_metric_2",
      "opt_type": "categorical",
      "opt_domain": "sig, subs, arg_filter, gen",
      "default_val": "subs",
      "possible_condition": "abstr_ref_metric_2 | abstr_ref_len > 1"
    },
    {
      "opt_name": "--abstr_ref_metric_3",
      "opt_type": "categorical",
      "opt_domain": "sig, subs, arg_filter, gen",
      "default_val": "arg_filter",
      "possible_condition": "abstr_ref_metric_3 | abstr_ref_len > 2"
    },
    {
      "opt_name": "--abstr_ref_metric_4",
      "opt_type": "categorical",
      "opt_domain": "sig, subs, arg_filter, gen",
      "default_val": "gen",
      "possible_condition": "abstr_ref_metric_4 | abstr_ref_len > 3"
    }
  ],
  "abstr": [
    {
      "opt_name": "--abstr_ref_prep",
      "opt_type": "categorical",
      "opt_domain": "true, false",
      "default_val": "false",
      "possible_condition": "abstr_ref_prep | abstr_ref_len > 0"
    },
    {
      "opt_name": "--abstr_ref_until_sat",
      "opt_type": "categorical",
      "opt_domain": "true, false",
      "default_val": "false",
      "possible_condition": "abstr_ref_until_sat | abstr_ref_len > 0"
    },
    {
      "opt_name": "--abstr_ref_sig_restrict",
      "opt_type": "categorical",
      "opt_domain": "funpre, skc",
      "default_val": "funpre",
      "possible_condition": "abstr_ref_sig_restrict | abstr_ref_len > 0"
    },
    {
      "opt_name": "--abstr_ref_af_restrict_to_split_sk",
      "opt_type": "categorical",
      "opt_domain": "true, false",
      "default_val": "false",
      "possible_condition": "abstr_ref_af_restrict_to_split_sk | abstr_ref_len > 0"
    },
    {
      "opt_name": "--abstr_ref_under",
      "opt_type": "categorical",
      "opt_domain": "[cone], []",
      "default_val": "[cone]",
      "possible_condition": ""
    }
  ],
  "inst": [
    {
      "opt_name": "--instantiation_flag",
      "opt_type": "categorical",
      "opt_domain": "true, false",
      "default_val": "true",
      "possible_condition": ""
    },
    {
      "opt_name": "--inst_sos_flag",
      "opt_type": "categorical",
      "opt_domain": "true, false",
      "default_val": "true",
      "possible_condition": "inst_sos_flag | instantiation_flag == true"
    },
    {
      "opt_name": "--inst_sos_phase",
      "opt_type": "categorical",
      "opt_domain": "true, false",
      "default_val": "false",
      "possible_condition": "inst_sos_phase | instantiation_flag == true && inst_sos_flag == true"
    },
    {
      "opt_name": "--comb_inst_mult",
      "opt_type": "ordinal",
      "opt_domain": "1, 2, 3, 4, 6, 8, 16, 32, 64",
      "default_val": "3",
      "possible_condition": "comb_inst_mult | instantiation_flag == true"
    },
    {
      "opt_name": "--inst_lit_sel_side",
      "opt_type": "categorical",
      "opt_domain": "num_lit, num_var, num_symb, cnt, none",
      "default_val": "none",
      "possible_condition": "inst_lit_sel_side | instantiation_flag == true"
    },
    {
      "opt_name": "--inst_solver_calls_frac",
      "opt_type": "real",
      "opt_domain": "0, 1",
      "default_val": "1",
      "possible_condition": "inst_solver_calls_frac | instantiation_flag == true"
    },
    {
      "opt_name": "--inst_solver_per_active",
      "opt_type": "ordinal",
      "opt_domain": "1, 2, 4, 8, 16, 32, 64, 128, 256, 512, 1024, 1400, 2048, 4096, 8192, 16384, 32768",
      "default_val": "1024",
      "possible_condition": "inst_solver_per_active | instantiation_flag == true"
    },
    {
      "opt_name": "--inst_passive_queue_type",
      "opt_type": "categorical",
      "opt_domain": "queue, stack, list, priority_queues",
      "default_val": "queue",
      "possible_condition": "inst_passive_queue_type | instantiation_flag == true"
    },
    {
      "opt_name": "--inst_dismatching",
      "opt_type": "categorical",
      "opt_domain": "true, false",
      "default_val": "true",
      "possible_condition": "inst_dismatching | instantiation_flag == true"
    },
    {
      "opt_name": "--inst_eager_unprocessed_to_passive",
      "opt_type": "categorical",
      "opt_domain": "true, false",
      "default_val": "true",
      "possible_condition": "inst_eager_unprocessed_to_passive | instantiation_flag == true"
    },
    {
      "opt_name": "--inst_prop_sim_given",
      "opt_type": "categorical",
      "opt_domain": "true, false",
      "default_val": "true",
      "possible_condition": "inst_prop_sim_given | instantiation_flag == true"
    },
    {
      "opt_name": "--inst_prop_sim_new",
      "opt_type": "categorical",
      "opt_domain": "true, false",
      "default_val": "false",
      "possible_condition": "inst_prop_sim_new | instantiation_flag == true"
    },
    {
      "opt_name": "--inst_subs_new",
      "opt_type": "categorical",
      "opt_domain": "true, false",
      "default_val": "false",
      "possible_condition": "inst_subs_new | instantiation_flag == true"
    },
    {
      "opt_name": "--inst_eq_res_simp",
      "opt_type": "categorical",
      "opt_domain": "true, false",
      "default_val": "true",
      "possible_condition": "inst_eq_res_simp | instantiation_flag == true"
    },
    {
      "opt_name": "--inst_subs_given",
      "opt_type": "categorical",
      "opt_domain": "true, false",
      "default_val": "true",
      "possible_condition": "inst_subs_given | instantiation_flag == true"
    },
    {
      "opt_name": "--inst_orphan_elimination",
      "opt_type": "categorical",
      "opt_domain": "true, false",
      "default_val": "true",
      "possible_condition": "inst_orphan_elimination | instantiation_flag == true"
    },
    {
      "opt_name": "--inst_learning_loop_flag",
      "opt_type": "categorical",
      "opt_domain": "true, false",
      "default_val": "true",
      "possible_condition": "inst_learning_loop_flag | instantiation_flag == true"
    },
    {
      "opt_name": "--inst_learning_start",
      "opt_type": "ordinal",
      "opt_domain": "1, 2, 4, 8, 16, 32, 64, 128, 256, 512, 1024, 2048, 3000, 4096, 8192, 16384, 32768",
      "default_val": "2048",
      "possible_condition": "inst_learning_start | instantiation_flag == true && inst_learning_loop_flag == true"
    },
    {
      "opt_name": "--inst_learning_factor",
      "opt_type": "integer",
      "opt_domain": "1, 10",
      "default_val": "2",
      "possible_condition": "inst_learning_factor | instantiation_flag == true && inst_learning_loop_flag == true"
    },
    {
      "opt_name": "--inst_start_prop_sim_after_learn",
      "opt_type": "integer",
      "opt_domain": "1, 10",
      "default_val": "3",
      "possible_condition": "inst_start_prop_sim_after_learn | instantiation_flag == true"
    },
    {
      "opt_name": "--inst_sel_renew",
      "opt_type": "categorical",
      "opt_domain": "solver, model",
      "default_val": "solver",
      "possible_condition": "inst_sel_renew | instantiation_flag == true"
    },
    {
      "opt_name": "--inst_lit_activity_flag",
      "opt_type": "categorical",
      "opt_domain": "true, false",
      "default_val": "true",
      "possible_condition": "inst_lit_activity_flag | instantiation_flag == true"
    },
    {
      "opt_name": "--inst_restr_to_given",
      "opt_type": "categorical",
      "opt_domain": "true, false",
      "default_val": "true",
      "possible_condition": "inst_restr_to_given | instantiation_flag == true"
    },
    {
      "opt_name": "--inst_activity_threshold",
      "opt_type": "ordinal",
      "opt_domain": "1, 2, 4, 8, 16, 32, 64, 128, 256, 500, 512, 1024, 2048, 4096",
      "default_val": "512",
      "possible_condition": "inst_activity_threshold | instantiation_flag == true"
    }
  ],
  "res": [
    {
      "opt_name": "--resolution_flag",
      "opt_type": "categorical",
      "opt_domain": "true, false",
      "default_val": "true",
      "possible_condition": ""
    },
    {
      "opt_name": "--comb_res_mult",
      "opt_type": "ordinal",
      "opt_domain": "1, 2, 3, 4, 6, 8, 16, 32, 64",
      "default_val": "2",
      "possible_condition": "comb_res_mult | resolution_flag == true"
    },
    {
      "opt_name": "--res_lit_sel_side",
      "opt_type": "categorical",
      "opt_domain": "num_lit, num_var, num_symb, cnt, none",
      "default_val": "num_lit",
      "possible_condition": "res_lit_sel_side | resolution_flag == true"
    },
    {
      "opt_name": "--res_ordering",
      "opt_type": "categorical",
      "opt_domain": "kbo,  kbo_pred",
      "default_val": "kbo",
      "possible_condition": "res_ordering | resolution_flag == true"
    },
    {
      "opt_name": "--res_to_prop_solver",
      "opt_type": "categorical",
      "opt_domain": "active, passive, none",
      "default_val": "active",
      "possible_condition": "res_to_prop_solver | resolution_flag == true"
    },
    {
      "opt_name": "--res_prop_simpl_new",
      "opt_type": "categorical",
      "opt_domain": "true, false",
      "default_val": "true",
      "possible_condition": "res_prop_simpl_new | resolution_flag == true"
    },
    {
      "opt_name": "--res_prop_simpl_given",
      "opt_type": "categorical",
      "opt_domain": "true, false",
      "default_val": "true",
      "possible_condition": "res_prop_simpl_given | resolution_flag == true"
    },
    {
      "opt_name": "--res_passive_queue_type",
      "opt_type": "categorical",
      "opt_domain": "queue, stack, list, priority_queues",
      "default_val": "priority_queues",
      "possible_condition": "res_passive_queue_type | resolution_flag == true"
    },
    {
      "opt_name": "--res_forward_subs_resolution",
      "opt_type": "categorical",
      "opt_domain": "true, false",
      "default_val": "true",
      "possible_condition": "res_forward_subs_resolution | resolution_flag == true"
    },
    {
      "opt_name": "--res_backward_subs_resolution",
      "opt_type": "categorical",
      "opt_domain": "true, false",
      "default_val": "true",
      "possible_condition": "res_backward_subs_resolution | resolution_flag == true"
    },
    {
      "opt_name": "--res_lit_sel",
      "opt_type": "categorical",
      "opt_domain": "adaptive, adaptive_neg, adaptive_max, kbo_max, neg_max, neg_min, pos_max, pos_min, neg_nrc",
      "default_val": "adaptive",
      "possible_condition": "res_lit_sel | resolution_flag == true"
    },
    {
      "opt_name": "--res_time_limit",
      "opt_type": "real",
      "opt_domain": "0, 300",
      "default_val": "300",
      "possible_condition": "res_time_limit | resolution_flag == true"
    },
    {
      "opt_name": "--res_forward_subs",
      "opt_type": "categorical",
      "opt_domain": "full, subset_subsumption",
      "default_val": "full",
      "possible_condition": "res_forward_subs | resolution_flag == true"
    },
    {
      "opt_name": "--res_backward_subs",
      "opt_type": "categorical",
      "opt_domain": "full, subset_subsumption",
      "default_val": "full",
      "possible_condition": "res_backward_subs | resolution_flag == true"
    }
  ],
  "res_passive_queues": [
    {
      "opt_name": "--res_passive_queues_len",
      "opt_type": "integer",
      "opt_domain": "1, 3",
      "default_val": "2",
      "possible_condition": "res_passive_queues_len | resolution_flag == true"
    },
    {
      "opt_name": "--res_passive_queues_1_len",
      "opt_type": "integer",
      "opt_domain": "1, 3",
      "default_val": "3",
      "possible_condition": "res_passive_queues_1_len | resolution_flag == true"
    },
    {
      "opt_name": "--res_passive_queues_1_freq",
      "opt_type": "ordinal",
      "opt_domain": "1, 2, 3, 4, 5, 6, 8, 10, 15, 25, 50, 512, 1024",
      "default_val": "512",
      "possible_condition": "res_passive_queues_1_freq | resolution_flag == true"
    },
    {
      "opt_name": "--res_passive_queues_2_len",
      "opt_type": "integer",
      "opt_domain": "1, 3",
      "default_val": "3",
      "possible_condition": "res_passive_queues_2_len | res_passive_queues_len > 1 && resolution_flag == true"
    },
    {
      "opt_name": "--res_passive_queues_2_freq",
      "opt_type": "ordinal",
      "opt_domain": "1, 2, 3, 4, 5, 6, 8, 10, 15, 25, 50, 512, 1024",
      "default_val": "50",
      "possible_condition": "res_passive_queues_2_freq | res_passive_queues_len > 1 && resolution_flag == true"
    },
    {
      "opt_name": "--res_passive_queues_3_len",
      "opt_type": "integer",
      "opt_domain": "1, 3",
      "default_val": "3",
      "possible_condition": "res_passive_queues_3_len | res_passive_queues_len > 2 && resolution_flag == true"
    },
    {
      "opt_name": "--res_passive_queues_3_freq",
      "opt_type": "ordinal",
      "opt_domain": "1, 2, 3, 4, 5, 6, 8, 10, 15, 25, 50, 512, 1024",
      "default_val": "512",
      "possible_condition": "res_passive_queues_3_freq | res_passive_queues_len > 2 && resolution_flag == true"
    },
    {
      "opt_name": "--res_passive_queues_metric_1_1",
      "opt_type": "categorical",
      "opt_domain": "+age, -age, +num_var, -num_var, +num_symb, -num_symb, +num_lits, -num_lits, +ground, -ground, +conj_dist, -conj_dist, +conj_symb, -conj_symb, +max_atom_input_occur, -max_atom_input_occur, +conj_non_prolific_symb, -conj_non_prolific_symb, +horn, -horn, +epr, -epr, +has_eq, -has_eq, +min_def_symb, -min_def_symb, +bc_imp_inh, -bc_imp_inh, +ar_concr, -ar_concr",
      "default_val": "+age",
      "possible_condition": "res_passive_queues_metric_1_1 | resolution_flag == true"
    },
    {
      "opt_name": "--res_passive_queues_metric_1_2",
      "opt_type": "categorical",
      "opt_domain": "+age, -age, +num_var, -num_var, +num_symb, -num_symb, +num_lits, -num_lits, +ground, -ground, +conj_dist, -conj_dist, +conj_symb, -conj_symb, +max_atom_input_occur, -max_atom_input_occur, +conj_non_prolific_symb, -conj_non_prolific_symb, +horn, -horn, +epr, -epr, +has_eq, -has_eq, +min_def_symb, -min_def_symb, +bc_imp_inh, -bc_imp_inh, +ar_concr, -ar_concr",
      "default_val": "+num_lits",
      "possible_condition": "res_passive_queues_metric_1_2 | res_passive_queues_1_len > 1 && resolution_flag == true"
    },
    {
      "opt_name": "--res_passive_queues_metric_1_3",
      "opt_type": "categorical",
      "opt_domain": "+age, -age, +num_var, -num_var, +num_symb, -num_symb, +num_lits, -num_lits, +ground, -ground, +conj_dist, -conj_dist, +conj_symb, -conj_symb, +max_atom_input_occur, -max_atom_input_occur, +conj_non_prolific_symb, -conj_non_prolific_symb, +horn, -horn, +epr, -epr, +has_eq, -has_eq, +min_def_symb, -min_def_symb, +bc_imp_inh, -bc_imp_inh, +ar_concr, -ar_concr",
      "default_val": "-age",
      "possible_condition": "res_passive_queues_metric_1_3 | res_passive_queues_1_len > 2 && resolution_flag == true"
    },
    {
      "opt_name": "--res_passive_queues_metric_2_1",
      "opt_type": "categorical",
      "opt_domain": "+age, -age, +num_var, -num_var, +num_symb, -num_symb, +num_lits, -num_lits, +ground, -ground, +conj_dist, -conj_dist, +conj_symb, -conj_symb, +max_atom_input_occur, -max_atom_input_occur, +conj_non_prolific_symb, -conj_non_prolific_symb, +horn, -horn, +epr, -epr, +has_eq, -has_eq, +min_def_symb, -min_def_symb, +bc_imp_inh, -bc_imp_inh, +ar_concr, -ar_concr",
      "default_val": "-age",
      "possible_condition": "res_passive_queues_metric_2_1 | res_passive_queues_len > 1 && resolution_flag == true"
    },
    {
      "opt_name": "--res_passive_queues_metric_2_2",
      "opt_type": "categorical",
      "opt_domain": "+age, -age, +num_var, -num_var, +num_symb, -num_symb, +num_lits, -num_lits, +ground, -ground, +conj_dist, -conj_dist, +conj_symb, -conj_symb, +max_atom_input_occur, -max_atom_input_occur, +conj_non_prolific_symb, -conj_non_prolific_symb, +horn, -horn, +epr, -epr, +has_eq, -has_eq, +min_def_symb, -min_def_symb, +bc_imp_inh, -bc_imp_inh, +ar_concr, -ar_concr",
      "default_val": "-min_def_symb",
      "possible_condition": "res_passive_queues_metric_2_2 | res_passive_queues_2_len > 1 && res_passive_queues_len > 1 && resolution_flag == true"
    },
    {
      "opt_name": "--res_passive_queues_metric_2_3",
      "opt_type": "categorical",
      "opt_domain": "+age, -age, +num_var, -num_var, +num_symb, -num_symb, +num_lits, -num_lits, +ground, -ground, +conj_dist, -conj_dist, +conj_symb, -conj_symb, +max_atom_input_occur, -max_atom_input_occur, +conj_non_prolific_symb, -conj_non_prolific_symb, +horn, -horn, +epr, -epr, +has_eq, -has_eq, +min_def_symb, -min_def_symb, +bc_imp_inh, -bc_imp_inh, +ar_concr, -ar_concr",
      "default_val": "+bc_imp_inh",
      "possible_condition": "res_passive_queues_metric_2_3 | res_passive_queues_2_len > 2 && res_passive_queues_len > 1 && resolution_flag == true"
    },
    {
      "opt_name": "--res_passive_queues_metric_3_1",
      "opt_type": "categorical",
      "opt_domain": "+age, -age, +num_var, -num_var, +num_symb, -num_symb, +num_lits, -num_lits, +ground, -ground, +conj_dist, -conj_dist, +conj_symb, -conj_symb, +max_atom_input_occur, -max_atom_input_occur, +conj_non_prolific_symb, -conj_non_prolific_symb, +horn, -horn, +epr, -epr, +has_eq, -has_eq, +min_def_symb, -min_def_symb, +bc_imp_inh, -bc_imp_inh, +ar_concr, -ar_concr",
      "default_val": "+age",
      "possible_condition": "res_passive_queues_metric_3_1 | resolution_flag == true &&  res_passive_queues_len > 2"
    },
    {
      "opt_name": "--res_passive_queues_metric_3_2",
      "opt_type": "categorical",
      "opt_domain": "+age, -age, +num_var, -num_var, +num_symb, -num_symb, +num_lits, -num_lits, +ground, -ground, +conj_dist, -conj_dist, +conj_symb, -conj_symb, +max_atom_input_occur, -max_atom_input_occur, +conj_non_prolific_symb, -conj_non_prolific_symb, +horn, -horn, +epr, -epr, +has_eq, -has_eq, +min_def_symb, -min_def_symb, +bc_imp_inh, -bc_imp_inh, +ar_concr, -ar_concr",
      "default_val": "+num_lits",
      "possible_condition": "res_passive_queues_metric_3_2 | res_passive_queues_3_len > 1 && resolution_flag == true &&  res_passive_queues_len > 2"
    },
    {
      "opt_name": "--res_passive_queues_metric_3_3",
      "opt_type": "categorical",
      "opt_domain": "+age, -age, +num_var, -num_var, +num_symb, -num_symb, +num_lits, -num_lits, +ground, -ground, +conj_dist, -conj_dist, +conj_symb, -conj_symb, +max_atom_input_occur, -max_atom_input_occur, +conj_non_prolific_symb, -conj_non_prolific_symb, +horn, -horn, +epr, -epr, +has_eq, -has_eq, +min_def_symb, -min_def_symb, +bc_imp_inh, -bc_imp_inh, +ar_concr, -ar_concr",
      "default_val": "-age",
      "possible_condition": "res_passive_queues_metric_3_3 | res_passive_queues_3_len > 2 && resolution_flag == true &&  res_passive_queues_len > 2"
    }
  ],
  "inst_sos_sth_lit_sel": [
    {
      "opt_name": "--inst_sos_sth_lit_sel_len",
      "opt_type": "ordinal",
      "opt_domain": "1, 2, 3, 4, 5",
      "default_val": "3",
      "possible_condition": "inst_sos_sth_lit_sel_len | instantiation_flag == true && inst_sos_flag == true"
    },
    {
      "opt_name": "--inst_sos_sth_lit_sel_metric_1",
      "opt_type": "categorical",
      "opt_domain": "+sign, -sign, +ground, -ground, +prop, -prop, +num_var, -num_var, +num_symb, -num_symb, +split, -split, +depth, -depth, +conj_symb, -conj_symb, +non_prol_conj_symb, -non_prol_conj_symb, +eq, -eq",
      "default_val": "+split",
      "possible_condition": "inst_sos_sth_lit_sel_metric_1 | instantiation_flag == true && inst_sos_flag == true"
    },
    {
      "opt_name": "--inst_sos_sth_lit_sel_metric_2",
      "opt_type": "categorical",
      "opt_domain": "+sign, -sign, +ground, -ground, +prop, -prop, +num_var, -num_var, +num_symb, -num_symb, +split, -split, +depth, -depth, +conj_symb, -conj_symb, +non_prol_conj_symb, -non_prol_conj_symb, +eq, -eq",
      "default_val": "-ground",
      "possible_condition": "inst_sos_sth_lit_sel_metric_2 | inst_sos_sth_lit_sel_len > 1 && instantiation_flag == true && inst_sos_flag == true"
    },
    {
      "opt_name": "--inst_sos_sth_lit_sel_metric_3",
      "opt_type": "categorical",
      "opt_domain": "+sign, -sign, +ground, -ground, +prop, -prop, +num_var, -num_var, +num_symb, -num_symb, +split, -split, +depth, -depth, +conj_symb, -conj_symb, +non_prol_conj_symb, -non_prol_conj_symb, +eq, -eq",
      "default_val": "-depth",
      "possible_condition": "inst_sos_sth_lit_sel_metric_3 | inst_sos_sth_lit_sel_len > 2 && instantiation_flag == true && inst_sos_flag == true"
    },
    {
      "opt_name": "--inst_sos_sth_lit_sel_metric_4",
      "opt_type": "categorical",
      "opt_domain": "+sign, -sign, +ground, -ground, +prop, -prop, +num_var, -num_var, +num_symb, -num_symb, +split, -split, +depth, -depth, +conj_symb, -conj_symb, +non_prol_conj_symb, -non_prol_conj_symb, +eq, -eq",
      "default_val": "+split",
      "possible_condition": "inst_sos_sth_lit_sel_metric_4 | inst_sos_sth_lit_sel_len > 3 && instantiation_flag == true && inst_sos_flag == true"
    },
    {
      "opt_name": "--inst_sos_sth_lit_sel_metric_5",
      "opt_type": "categorical",
      "opt_domain": "+sign, -sign, +ground, -ground, +prop, -prop, +num_var, -num_var, +num_symb, -num_symb, +split, -split, +depth, -depth, +conj_symb, -conj_symb, +non_prol_conj_symb, -non_prol_conj_symb, +eq, -eq",
      "default_val": "+split",
      "possible_condition": "inst_sos_sth_lit_sel_metric_5 | inst_sos_sth_lit_sel_len > 4 && instantiation_flag == true && inst_sos_flag == true"
    }
  ],
  "inst_lit_sel": [
    {
      "opt_name": "--inst_lit_sel_len",
      "opt_type": "ordinal",
      "opt_domain": "1, 2, 3, 4, 5",
      "default_val": "3",
      "possible_condition": "inst_lit_sel_len | instantiation_flag == true"
    },
    {
      "opt_name": "--inst_lit_sel_metric_1",
      "opt_type": "categorical",
      "opt_domain": "+sign, -sign, +ground, -ground, +prop, -prop, +num_var, -num_var, +num_symb, -num_symb, +split, -split, +depth, -depth, +conj_symb, -conj_symb, +non_prol_conj_symb, -non_prol_conj_symb, +eq, -eq",
      "default_val": "+split",
      "possible_condition": "inst_lit_sel_metric_1 | instantiation_flag == true"
    },
    {
      "opt_name": "--inst_lit_sel_metric_2",
      "opt_type": "categorical",
      "opt_domain": "+sign, -sign, +ground, -ground, +prop, -prop, +num_var, -num_var, +num_symb, -num_symb, +split, -split, +depth, -depth, +conj_symb, -conj_symb, +non_prol_conj_symb, -non_prol_conj_symb, +eq, -eq",
      "default_val": "-sign",
      "possible_condition": "inst_lit_sel_metric_2 | inst_lit_sel_len > 1 && instantiation_flag == true"
    },
    {
      "opt_name": "--inst_lit_sel_metric_3",
      "opt_type": "categorical",
      "opt_domain": "+sign, -sign, +ground, -ground, +prop, -prop, +num_var, -num_var, +num_symb, -num_symb, +split, -split, +depth, -depth, +conj_symb, -conj_symb, +non_prol_conj_symb, -non_prol_conj_symb, +eq, -eq",
      "default_val": "-depth",
      "possible_condition": "inst_lit_sel_metric_3 | inst_lit_sel_len > 2 && instantiation_flag == true"
    },
    {
      "opt_name": "--inst_lit_sel_metric_4",
      "opt_type": "categorical",
      "opt_domain": "+sign, -sign, +ground, -ground, +prop, -prop, +num_var, -num_var, +num_symb, -num_symb, +split, -split, +depth, -depth, +conj_symb, -conj_symb, +non_prol_conj_symb, -non_prol_conj_symb, +eq, -eq",
      "default_val": "+split",
      "possible_condition": "inst_lit_sel_metric_4 | inst_lit_sel_len > 3 && instantiation_flag == true"
    },
    {
      "opt_name": "--inst_lit_sel_metric_5",
      "opt_type": "categorical",
      "opt_domain": "+sign, -sign, +ground, -ground, +prop, -prop, +num_var, -num_var, +num_symb, -num_symb, +split, -split, +depth, -depth, +conj_symb, -conj_symb, +non_prol_conj_symb, -non_prol_conj_symb, +eq, -eq",
      "default_val": "+split",
      "possible_condition": "inst_tit_sel_metric_5 | inst_lit_sel_len > 4 && instantiation_flag == true"
    }
  ],
  "inst_passive_queues": [
    {
      "opt_name": "--inst_passive_queues_len",
      "opt_type": "integer",
      "opt_domain": "1, 3",
      "default_val": "2",
      "possible_condition": "inst_passive_queues_len | instantiation_flag == true"
    },
    {
      "opt_name": "--inst_passive_queues_1_len",
      "opt_type": "integer",
      "opt_domain": "1, 3",
      "default_val": "3",
      "possible_condition": "inst_passive_queues_1_len | instantiation_flag == true"
    },
    {
      "opt_name": "--inst_passive_queues_1_freq",
      "opt_type": "ordinal",
      "opt_domain": "1, 2, 3, 4, 5, 6, 8, 10, 15, 25, 50, 512, 1024",
      "default_val": "2",
      "possible_condition": "inst_passive_queues_1_freq | instantiation_flag == true"
    },
    {
      "opt_name": "--inst_passive_queues_2_len",
      "opt_type": "integer",
      "opt_domain": "1, 3",
      "default_val": "3",
      "possible_condition": "inst_passive_queues_2_len | inst_passive_queues_len > 1 && instantiation_flag == true"
    },
    {
      "opt_name": "--inst_passive_queues_2_freq",
      "opt_type": "ordinal",
      "opt_domain": "1, 2, 3, 4, 5, 6, 8, 10, 15, 25, 50, 512, 1024",
      "default_val": "2",
      "possible_condition": "inst_passive_queues_2_freq | inst_passive_queues_len > 1 && instantiation_flag == true"
    },
    {
      "opt_name": "--inst_passive_queues_3_len",
      "opt_type": "integer",
      "opt_domain": "1, 3",
      "default_val": "3",
      "possible_condition": "inst_passive_queues_3_len | inst_passive_queues_len > 2 && instantiation_flag == true"
    },
    {
      "opt_name": "--inst_passive_queues_3_freq",
      "opt_type": "ordinal",
      "opt_domain": "1, 2, 3, 4, 5, 6, 8, 10, 15, 25, 50, 512, 1024",
      "default_val": "2",
      "possible_condition": "inst_passive_queues_3_freq | inst_passive_queues_len > 2 && instantiation_flag == true"
    },
    {
      "opt_name": "--inst_passive_queues_metric_1_1",
      "opt_type": "categorical",
      "opt_domain": "+age, -age, +num_var, -num_var, +num_symb, -num_symb, +num_lits, -num_lits, +ground, -ground, +conj_dist, -conj_dist, +conj_symb, -conj_symb, +max_atom_input_occur, -max_atom_input_occur, +conj_non_prolific_symb, -conj_non_prolific_symb, +horn, -horn, +epr, -epr, +has_eq, -has_eq, +min_def_symb, -min_def_symb, +bc_imp_inh, -bc_imp_inh, +ar_concr, -ar_concr",
      "default_val": "+age",
      "possible_condition": "inst_passive_queues_metric_1_1 | instantiation_flag == true"
    },
    {
      "opt_name": "--inst_passive_queues_metric_1_2",
      "opt_type": "categorical",
      "opt_domain": "+age, -age, +num_var, -num_var, +num_symb, -num_symb, +num_lits, -num_lits, +ground, -ground, +conj_dist, -conj_dist, +conj_symb, -conj_symb, +max_atom_input_occur, -max_atom_input_occur, +conj_non_prolific_symb, -conj_non_prolific_symb, +horn, -horn, +epr, -epr, +has_eq, -has_eq, +min_def_symb, -min_def_symb, +bc_imp_inh, -bc_imp_inh, +ar_concr, -ar_concr",
      "default_val": "+num_lits",
      "possible_condition": "inst_passive_queues_metric_1_2 | inst_passive_queues_1_len > 1 && instantiation_flag == true"
    },
    {
      "opt_name": "--inst_passive_queues_metric_1_3",
      "opt_type": "categorical",
      "opt_domain": "+age, -age, +num_var, -num_var, +num_symb, -num_symb, +num_lits, -num_lits, +ground, -ground, +conj_dist, -conj_dist, +conj_symb, -conj_symb, +max_atom_input_occur, -max_atom_input_occur, +conj_non_prolific_symb, -conj_non_prolific_symb, +horn, -horn, +epr, -epr, +has_eq, -has_eq, +min_def_symb, -min_def_symb, +bc_imp_inh, -bc_imp_inh, +ar_concr, -ar_concr",
      "default_val": "-age",
      "possible_condition": "inst_passive_queues_metric_1_3 | inst_passive_queues_1_len > 2 && instantiation_flag == true"
    },
    {
      "opt_name": "--inst_passive_queues_metric_2_1",
      "opt_type": "categorical",
      "opt_domain": "+age, -age, +num_var, -num_var, +num_symb, -num_symb, +num_lits, -num_lits, +ground, -ground, +conj_dist, -conj_dist, +conj_symb, -conj_symb, +max_atom_input_occur, -max_atom_input_occur, +conj_non_prolific_symb, -conj_non_prolific_symb, +horn, -horn, +epr, -epr, +has_eq, -has_eq, +min_def_symb, -min_def_symb, +bc_imp_inh, -bc_imp_inh, +ar_concr, -ar_concr",
      "default_val": "-age",
      "possible_condition": "inst_passive_queues_metric_2_1 | inst_passive_queues_len > 1 && instantiation_flag == true"
    },
    {
      "opt_name": "--inst_passive_queues_metric_2_2",
      "opt_type": "categorical",
      "opt_domain": "+age, -age, +num_var, -num_var, +num_symb, -num_symb, +num_lits, -num_lits, +ground, -ground, +conj_dist, -conj_dist, +conj_symb, -conj_symb, +max_atom_input_occur, -max_atom_input_occur, +conj_non_prolific_symb, -conj_non_prolific_symb, +horn, -horn, +epr, -epr, +has_eq, -has_eq, +min_def_symb, -min_def_symb, +bc_imp_inh, -bc_imp_inh, +ar_concr, -ar_concr",
      "default_val": "-min_def_symb",
      "possible_condition": "inst_passive_queues_metric_2_2 | inst_passive_queues_2_len > 1 && inst_passive_queues_len > 1 && instantiation_flag == true"
    },
    {
      "opt_name": "--inst_passive_queues_metric_2_3",
      "opt_type": "categorical",
      "opt_domain": "+age, -age, +num_var, -num_var, +num_symb, -num_symb, +num_lits, -num_lits, +ground, -ground, +conj_dist, -conj_dist, +conj_symb, -conj_symb, +max_atom_input_occur, -max_atom_input_occur, +conj_non_prolific_symb, -conj_non_prolific_symb, +horn, -horn, +epr, -epr, +has_eq, -has_eq, +min_def_symb, -min_def_symb, +bc_imp_inh, -bc_imp_inh, +ar_concr, -ar_concr",
      "default_val": "+bc_imp_inh",
      "possible_condition": "inst_passive_queues_metric_2_3 | inst_passive_queues_2_len > 2 && inst_passive_queues_len > 1 && instantiation_flag == true"
    },
    {
      "opt_name": "--inst_passive_queues_metric_3_1",
      "opt_type": "categorical",
      "opt_domain": "+age, -age, +num_var, -num_var, +num_symb, -num_symb, +num_lits, -num_lits, +ground, -ground, +conj_dist, -conj_dist, +conj_symb, -conj_symb, +max_atom_input_occur, -max_atom_input_occur, +conj_non_prolific_symb, -conj_non_prolific_symb, +horn, -horn, +epr, -epr, +has_eq, -has_eq, +min_def_symb, -min_def_symb, +bc_imp_inh, -bc_imp_inh, +ar_concr, -ar_concr",
      "default_val": "+age",
      "possible_condition": "inst_passive_queues_metric_3_1 | instantiation_flag == true && inst_passive_queues_len > 2"
    },
    {
      "opt_name": "--inst_passive_queues_metric_3_2",
      "opt_type": "categorical",
      "opt_domain": "+age, -age, +num_var, -num_var, +num_symb, -num_symb, +num_lits, -num_lits, +ground, -ground, +conj_dist, -conj_dist, +conj_symb, -conj_symb, +max_atom_input_occur, -max_atom_input_occur, +conj_non_prolific_symb, -conj_non_prolific_symb, +horn, -horn, +epr, -epr, +has_eq, -has_eq, +min_def_symb, -min_def_symb, +bc_imp_inh, -bc_imp_inh, +ar_concr, -ar_concr",
      "default_val": "+num_lits",
      "possible_condition": "inst_passive_queues_metric_3_2 | inst_passive_queues_3_len > 1 && instantiation_flag == true && inst_passive_queues_len > 2"
    },
    {
      "opt_name": "--inst_passive_queues_metric_3_3",
      "opt_type": "categorical",
      "opt_domain": "+age, -age, +num_var, -num_var, +num_symb, -num_symb, +num_lits, -num_lits, +ground, -ground, +conj_dist, -conj_dist, +conj_symb, -conj_symb, +max_atom_input_occur, -max_atom_input_occur, +conj_non_prolific_symb, -conj_non_prolific_symb, +horn, -horn, +epr, -epr, +has_eq, -has_eq, +min_def_symb, -min_def_symb, +bc_imp_inh, -bc_imp_inh, +ar_concr, -ar_concr",
      "default_val": "-age",
      "possible_condition": "inst_passive_queues_metric_3_3 | inst_passive_queues_3_len > 2 && instantiation_flag == true && inst_passive_queues_len > 2"
    }
  ],
  "sup": [
    {
      "opt_name": "--comb_sup_mult",
      "opt_type": "ordinal",
      "opt_domain": "0, 1, 2, 3, 4, 6, 8, 16, 32, 64",
      "default_val": "4",
      "possible_condition": ""
    },
    {
      "opt_name": "--comb_sup_deep_mult",
      "opt_type": "ordinal",
      "opt_domain": "0, 1, 2, 3, 4, 6, 8, 16, 32, 64",
      "default_val": "4",
      "possible_condition": ""
    },
    {
      "opt_name": "--superposition_flag",
      "opt_type": "categorical",
      "opt_domain": "true, false",
      "default_val": "true",
      "possible_condition": "superposition_flag | comb_sup_mult > 0 || comb_sup_deep_mult > 0"
    },
    {
      "opt_name": "--demod_completeness_check",
      "opt_type": "categorical",
      "opt_domain": "full, fast",
      "default_val": "full",
      "possible_condition": "demod_completeness_check | superposition_flag == true"
    },
    {
      "opt_name": "--demod_use_ground",
      "opt_type": "categorical",
      "opt_domain": "true, false",
      "default_val": "true",
      "possible_condition": "demod_use_ground | superposition_flag == true"
    },
    {
      "opt_name": "--sup_passive_queue_type",
      "opt_type": "categorical",
      "opt_domain": "queue, stack, list, priority_queues",
      "default_val": "priority_queues",
      "possible_condition": "sup_passive_queue_type | superposition_flag == true"
    },
    {
      "opt_name": "--sup_to_prop_solver",
      "opt_type": "categorical",
      "opt_domain": "active, passive, none",
      "default_val": "passive",
      "possible_condition": "sup_to_prop_solver | superposition_flag == true"
    },
    {
      "opt_name": "--sup_prop_simpl_new",
      "opt_type": "categorical",
      "opt_domain": "true, false",
      "default_val": "true",
      "possible_condition": "sup_prop_simpl_new | superposition_flag == true"
    },
    {
      "opt_name": "--sup_prop_simpl_given",
      "opt_type": "categorical",
      "opt_domain": "true, false",
      "default_val": "true",
      "possible_condition": "sup_prop_simpl_given | superposition_flag == true"
    },
    {
      "opt_name": "--sup_fun_splitting",
      "opt_type": "categorical",
      "opt_domain": "true, false",
      "default_val": "true",
      "possible_condition": "sup_fun_splitting | superposition_flag == true"
    },
    {
      "opt_name": "--sup_smt_interval",
      "opt_type": "ordinal",
      "opt_domain": "32, 64, 128, 512, 1024, 2048, 4096, 8192, 16384, 32768, 50000, 65536",
      "default_val": "4096",
      "possible_condition": "sup_smt_interval | superposition_flag == true"
    },
    {
      "opt_name": "--sup_iter_deepening",
      "opt_type": "ordinal",
      "opt_domain": "0, 1, 2, 4, 8, 16",
      "default_val": "0",
      "possible_condition": "sup_iter_deepening | superposition_flag == true"
    },
    {
      "opt_name": "--sup_restarts_mult",
      "opt_type": "ordinal",
      "opt_domain": "0, 2, 4, 8, 16",
      "default_val": "2",
      "possible_condition": "sup_restarts_mult | superposition_flag == true"
    },
    {
      "opt_name": "--sup_score",
      "opt_type": "categorical",
      "opt_domain": "sim, sim_gen, sim_d_gen",
      "default_val": "sim",
      "possible_condition": "sup_score | superposition_flag == true && share_sel_clauses == true"
    },
    {
      "opt_name": "--sup_share_score_frac",
      "opt_type": "ordinal",
      "opt_domain": "0.1, 0.2, 0.4, 0.8, 0.9",
      "default_val": "0.1",
      "possible_condition": "sup_share_score_frac | superposition_flag == true && share_sel_clauses == true"
    },
    {
      "opt_name": "--sup_share_max_num_cl",
      "opt_type": "ordinal",
      "opt_domain": "10, 20, 40, 80, 160, 320, 500, 640, 1280, 10000",
      "default_val": "10",
      "possible_condition": "sup_share_max_num_cl | superposition_flag == true && share_sel_clauses == true"
    },
    {
      "opt_name": "--sup_symb_ordering",
      "opt_type": "categorical",
      "opt_domain": "invfreq, invfreq_arity, invfreq_invarity, arity, arity_rev, arity_random, random",
      "default_val": "arity",
      "possible_condition": "sup_symb_ordering | superposition_flag == true"
    }
  ],
  "sup_passive_queues": [
    {
      "opt_name": "--sup_passive_queues_len",
      "opt_type": "integer",
      "opt_domain": "1, 3",
      "default_val": "2",
      "possible_condition": "sup_passive_queues_len | superposition_flag == true"
    },
    {
      "opt_name": "--sup_passive_queues_1_len",
      "opt_type": "integer",
      "opt_domain": "1, 3",
      "default_val": "3",
      "possible_condition": "sup_passive_queues_1_len | superposition_flag == true"
    },
    {
      "opt_name": "--sup_passive_queues_1_freq",
      "opt_type": "ordinal",
      "opt_domain": "1, 2, 3, 4, 5, 6, 8, 10, 15, 25, 50, 512, 1024",
      "default_val": "2",
      "possible_condition": "sup_passive_queues_1_freq | superposition_flag == true"
    },
    {
      "opt_name": "--sup_passive_queues_2_len",
      "opt_type": "integer",
      "opt_domain": "1, 3",
      "default_val": "3",
      "possible_condition": "sup_passive_queues_2_len | sup_passive_queues_len > 1 && superposition_flag == true"
    },
    {
      "opt_name": "--sup_passive_queues_2_freq",
      "opt_type": "ordinal",
      "opt_domain": "1, 2, 3, 4, 5, 6, 8, 10, 15, 25, 50, 512, 1024",
      "default_val": "5",
      "possible_condition": "sup_passive_queues_2_freq | sup_passive_queues_len > 1 && superposition_flag == true"
    },
    {
      "opt_name": "--sup_passive_queues_3_len",
      "opt_type": "integer",
      "opt_domain": "1, 3",
      "default_val": "3",
      "possible_condition": "sup_passive_queues_3_len | sup_passive_queues_len > 2 && superposition_flag == true"
    },
    {
      "opt_name": "--sup_passive_queues_3_freq",
      "opt_type": "ordinal",
      "opt_domain": "1, 2, 3, 4, 5, 6, 8, 10, 15, 25, 50, 512, 1024",
      "default_val": "5",
      "possible_condition": "sup_passive_queues_3_freq | sup_passive_queues_len > 2 && superposition_flag == true"
    },
    {
      "opt_name": "--sup_passive_queues_metric_1_1",
      "opt_type": "categorical",
      "opt_domain": "+age, -age, +num_var, -num_var, +num_symb, -num_symb, +num_lits, -num_lits, +ground, -ground, +conj_dist, -conj_dist, +conj_symb, -conj_symb, +max_atom_input_occur, -max_atom_input_occur, +conj_non_prolific_symb, -conj_non_prolific_symb, +horn, -horn, +epr, -epr, +has_eq, -has_eq, +min_def_symb, -min_def_symb, +next_state, -next_state, +reachable_state, -reachable_state, +bc_imp_inh, -bc_imp_inh, +ar_concr, -ar_concr, +score, -score",
      "default_val": "+conj_dist",
      "possible_condition": "sup_passive_queues_metric_1_1 | superposition_flag == true"
    },
    {
      "opt_name": "--sup_passive_queues_metric_1_2",
      "opt_type": "categorical",
      "opt_domain": "+age, -age, +num_var, -num_var, +num_symb, -num_symb, +num_lits, -num_lits, +ground, -ground, +conj_dist, -conj_dist, +conj_symb, -conj_symb, +max_atom_input_occur, -max_atom_input_occur, +conj_non_prolific_symb, -conj_non_prolific_symb, +horn, -horn, +epr, -epr, +has_eq, -has_eq, +min_def_symb, -min_def_symb, +next_state, -next_state, +reachable_state, -reachable_state, +bc_imp_inh, -bc_imp_inh, +ar_concr, -ar_concr, +score, -score",
      "default_val": "+num_lits",
      "possible_condition": "sup_passive_queues_metric_1_2 | sup_passive_queues_1_len > 1 && superposition_flag == true"
    },
    {
      "opt_name": "--sup_passive_queues_metric_1_3",
      "opt_type": "categorical",
      "opt_domain": "+age, -age, +num_var, -num_var, +num_symb, -num_symb, +num_lits, -num_lits, +ground, -ground, +conj_dist, -conj_dist, +conj_symb, -conj_symb, +max_atom_input_occur, -max_atom_input_occur, +conj_non_prolific_symb, -conj_non_prolific_symb, +horn, -horn, +epr, -epr, +has_eq, -has_eq, +min_def_symb, -min_def_symb, +next_state, -next_state, +reachable_state, -reachable_state, +bc_imp_inh, -bc_imp_inh, +ar_concr, -ar_concr, +score, -score",
      "default_val": "-age",
      "possible_condition": "sup_passive_queues_metric_1_3 | sup_passive_queues_1_len > 2 && superposition_flag == true"
    },
    {
      "opt_name": "--sup_passive_queues_metric_2_1",
      "opt_type": "categorical",
      "opt_domain": "+age, -age, +num_var, -num_var, +num_symb, -num_symb, +num_lits, -num_lits, +ground, -ground, +conj_dist, -conj_dist, +conj_symb, -conj_symb, +max_atom_input_occur, -max_atom_input_occur, +conj_non_prolific_symb, -conj_non_prolific_symb, +horn, -horn, +epr, -epr, +has_eq, -has_eq, +min_def_symb, -min_def_symb, +next_state, -next_state, +reachable_state, -reachable_state, +bc_imp_inh, -bc_imp_inh, +ar_concr, -ar_concr, +score, -score",
      "default_val": "-conj_symb",
      "possible_condition": "sup_passive_queues_metric_2_1 | sup_passive_queues_len > 1 && superposition_flag == true"
    },
    {
      "opt_name": "--sup_passive_queues_metric_2_2",
      "opt_type": "categorical",
      "opt_domain": "+age, -age, +num_var, -num_var, +num_symb, -num_symb, +num_lits, -num_lits, +ground, -ground, +conj_dist, -conj_dist, +conj_symb, -conj_symb, +max_atom_input_occur, -max_atom_input_occur, +conj_non_prolific_symb, -conj_non_prolific_symb, +horn, -horn, +epr, -epr, +has_eq, -has_eq, +min_def_symb, -min_def_symb, +next_state, -next_state, +reachable_state, -reachable_state, +bc_imp_inh, -bc_imp_inh, +ar_concr, -ar_concr, +score, -score",
      "default_val": "-min_def_symb",
      "possible_condition": "sup_passive_queues_metric_2_2 | sup_passive_queues_2_len > 1 && sup_passive_queues_len > 1 && superposition_flag == true"
    },
    {
      "opt_name": "--sup_passive_queues_metric_2_3",
      "opt_type": "categorical",
      "opt_domain": "+age, -age, +num_var, -num_var, +num_symb, -num_symb, +num_lits, -num_lits, +ground, -ground, +conj_dist, -conj_dist, +conj_symb, -conj_symb, +max_atom_input_occur, -max_atom_input_occur, +conj_non_prolific_symb, -conj_non_prolific_symb, +horn, -horn, +epr, -epr, +has_eq, -has_eq, +min_def_symb, -min_def_symb, +next_state, -next_state, +reachable_state, -reachable_state, +bc_imp_inh, -bc_imp_inh, +ar_concr, -ar_concr, +score, -score",
      "default_val": "+bc_imp_inh",
      "possible_condition": "sup_passive_queues_metric_2_3 | sup_passive_queues_2_len > 2 && sup_passive_queues_len > 1 && superposition_flag == true"
    },
    {
      "opt_name": "--sup_passive_queues_metric_3_1",
      "opt_type": "categorical",
      "opt_domain": "+age, -age, +num_var, -num_var, +num_symb, -num_symb, +num_lits, -num_lits, +ground, -ground, +conj_dist, -conj_dist, +conj_symb, -conj_symb, +max_atom_input_occur, -max_atom_input_occur, +conj_non_prolific_symb, -conj_non_prolific_symb, +horn, -horn, +epr, -epr, +has_eq, -has_eq, +min_def_symb, -min_def_symb, +next_state, -next_state, +reachable_state, -reachable_state, +bc_imp_inh, -bc_imp_inh, +ar_concr, -ar_concr, +score, -score",
      "default_val": "+conj_dist",
      "possible_condition": "sup_passive_queues_metric_3_1 | superposition_flag == true && sup_passive_queues_len > 2"
    },
    {
      "opt_name": "--sup_passive_queues_metric_3_2",
      "opt_type": "categorical",
      "opt_domain": "+age, -age, +num_var, -num_var, +num_symb, -num_symb, +num_lits, -num_lits, +ground, -ground, +conj_dist, -conj_dist, +conj_symb, -conj_symb, +max_atom_input_occur, -max_atom_input_occur, +conj_non_prolific_symb, -conj_non_prolific_symb, +horn, -horn, +epr, -epr, +has_eq, -has_eq, +min_def_symb, -min_def_symb, +next_state, -next_state, +reachable_state, -reachable_state, +bc_imp_inh, -bc_imp_inh, +ar_concr, -ar_concr, +score, -score",
      "default_val": "+num_lits",
      "possible_condition": "sup_passive_queues_metric_3_2 | sup_passive_queues_3_len > 1 && superposition_flag == true && sup_passive_queues_len > 2"
    },
    {
      "opt_name": "--sup_passive_queues_metric_3_3",
      "opt_type": "categorical",
      "opt_domain": "+age, -age, +num_var, -num_var, +num_symb, -num_symb, +num_lits, -num_lits, +ground, -ground, +conj_dist, -conj_dist, +conj_symb, -conj_symb, +max_atom_input_occur, -max_atom_input_occur, +conj_non_prolific_symb, -conj_non_prolific_symb, +horn, -horn, +epr, -epr, +has_eq, -has_eq, +min_def_symb, -min_def_symb, +next_state, -next_state, +reachable_state, -reachable_state, +bc_imp_inh, -bc_imp_inh, +ar_concr, -ar_concr, +score, -score",
      "default_val": "-age",
      "possible_condition": "sup_passive_queues_metric_3_3 | sup_passive_queues_3_len > 2 && superposition_flag == true && sup_passive_queues_len > 2"
    }
  ],
  "sup_indices_passive": [
    {
      "opt_name": "--sup_indices_passive_flag",
      "opt_type": "categorical",
      "opt_domain": "true, false",
      "default_val": "true",
      "possible_condition": "sup_indices_passive_flag | superposition_flag == true"
    },
    {
      "opt_name": "--sup_indices_passive_UnitSubsumption",
      "opt_type": "categorical",
      "opt_domain": "true, false",
      "default_val": "false",
      "possible_condition": "sup_indices_passive_UnitSubsumption | sup_indices_passive_flag == true && superposition_flag == true"
    },
    {
      "opt_name": "--sup_indices_passive_NonunitSubsumption",
      "opt_type": "categorical",
      "opt_domain": "true, false",
      "default_val": "false",
      "possible_condition": "sup_indices_passive_NonunitSubsumption | sup_indices_passive_flag == true && superposition_flag == true"
    },
    {
      "opt_name": "--sup_indices_passive_Subsumption",
      "opt_type": "categorical",
      "opt_domain": "true, false",
      "default_val": "false",
      "possible_condition": "sup_indices_passive_Subsumption | sup_indices_passive_flag == true && superposition_flag == true"
    },
    {
      "opt_name": "--sup_indices_passive_FwDemod",
      "opt_type": "categorical",
      "opt_domain": "true, false",
      "default_val": "false",
      "possible_condition": "sup_indices_passive_FwDemod | sup_indices_passive_flag == true && superposition_flag == true"
    },
    {
      "opt_name": "--sup_indices_passive_BwDemod",
      "opt_type": "categorical",
      "opt_domain": "true, false",
      "default_val": "false",
      "possible_condition": "sup_indices_passive_BwDemod | sup_indices_passive_flag == true && superposition_flag == true"
    },
    {
      "opt_name": "--sup_indices_passive_LightNorm",
      "opt_type": "categorical",
      "opt_domain": "true, false",
      "default_val": "true",
      "possible_condition": "sup_indices_passive_LightNorm | sup_indices_passive_flag == true && superposition_flag == true"
    }
  ],
  "sup_full_triv": [
    {
      "opt_name": "--sup_full_triv_flag",
      "opt_type": "categorical",
      "opt_domain": "true, false",
      "default_val": "true",
      "possible_condition": "sup_full_triv_flag | superposition_flag == true"
    },
    {
      "opt_name": "--sup_full_triv_PropSubs",
      "opt_type": "categorical",
      "opt_domain": "true, false",
      "default_val": "true",
      "possible_condition": "sup_full_triv_PropSubs | sup_full_triv_flag == true && superposition_flag == true"
    },
    {
      "opt_name": "--sup_full_triv_Unflattening",
      "opt_type": "categorical",
      "opt_domain": "true, false",
      "default_val": "true",
      "possible_condition": "sup_full_triv_Unflattening | sup_full_triv_flag == true && superposition_flag == true"
    }
  ],
  "sup_immed_triv": [
    {
      "opt_name": "--sup_immed_triv_flag",
      "opt_type": "categorical",
      "opt_domain": "true, false",
      "default_val": "true",
      "possible_condition": "sup_immed_triv_flag | superposition_flag == true"
    },
    {
      "opt_name": "--sup_immed_triv_PropSubs",
      "opt_type": "categorical",
      "opt_domain": "true, false",
      "default_val": "true",
      "possible_condition": "sup_immed_triv_PropSubs | sup_immed_triv_flag == true && superposition_flag == true"
    },
    {
      "opt_name": "--sup_immed_triv_Unflattening",
      "opt_type": "categorical",
      "opt_domain": "true, false",
      "default_val": "true",
      "possible_condition": "sup_immed_triv_Unflattening | sup_immed_triv_flag == true && superposition_flag == true"
    }
  ],
  "sup_input_triv": [
    {
      "opt_name": "--sup_input_triv_flag",
      "opt_type": "categorical",
      "opt_domain": "true, false",
      "default_val": "true",
      "possible_condition": "sup_input_triv_flag | prep_sup_sim_sup == true || prep_sup_sim_all == true"
    },
    {
      "opt_name": "--sup_input_triv_PropSubs",
      "opt_type": "categorical",
      "opt_domain": "true, false",
      "default_val": "true",
      "possible_condition": "sup_input_triv_PropSubs | sup_input_triv_flag == true && prep_sup_sim_sup == true || sup_input_triv_flag == true && prep_sup_sim_all == true"
    },
    {
      "opt_name": "--sup_input_triv_Unflattening",
      "opt_type": "categorical",
      "opt_domain": "true, false",
      "default_val": "true",
      "possible_condition": "sup_input_triv_Unflattening | sup_input_triv_flag == true && prep_sup_sim_sup == true || sup_input_triv_flag == true && prep_sup_sim_all == true"
    }
  ],
  "sup_full_fw": [
    {
      "opt_name": "--sup_full_fw_flag",
      "opt_type": "categorical",
      "opt_domain": "true, false",
      "default_val": "true",
      "possible_condition": "sup_full_fw_flag | superposition_flag == true"
    },
    {
      "opt_name": "--sup_full_fw_Subsumption",
      "opt_type": "categorical",
      "opt_domain": "true, false",
      "default_val": "false",
      "possible_condition": "sup_full_fw_Subsumption | sup_full_fw_flag == true && superposition_flag == true"
    },
    {
      "opt_name": "--sup_full_fw_UnitSubsAndRes",
      "opt_type": "categorical",
      "opt_domain": "true, false",
      "default_val": "false",
      "possible_condition": "sup_full_fw_UnitSubsAndRes | sup_full_fw_flag == true && superposition_flag == true"
    },
    {
      "opt_name": "--sup_full_fw_SubsumptionRes",
      "opt_type": "categorical",
      "opt_domain": "true, false",
      "default_val": "false",
      "possible_condition": "sup_full_fw_SubsumptionRes | sup_full_fw_flag == true && superposition_flag == true"
    },
    {
      "opt_name": "--sup_full_fw_Demod",
      "opt_type": "categorical",
      "opt_domain": "true, false",
      "default_val": "true",
      "possible_condition": "sup_full_fw_Demod | sup_full_fw_flag == true && superposition_flag == true"
    },
    {
      "opt_name": "--sup_full_fw_DemodLoopTriv",
      "opt_type": "categorical",
      "opt_domain": "true, false",
      "default_val": "true",
      "possible_condition": "sup_full_fw_DemodLoopTriv | sup_full_fw_flag == true && superposition_flag == true"
    },
    {
      "opt_name": "--sup_full_fw_LightNorm",
      "opt_type": "categorical",
      "opt_domain": "true, false",
      "default_val": "true",
      "possible_condition": "sup_full_fw_LightNorm | sup_full_fw_flag == true && superposition_flag == true"
    },
    {
      "opt_name": "--sup_full_fw_DemodLightNormLoopTriv",
      "opt_type": "categorical",
      "opt_domain": "true, false",
      "default_val": "true",
      "possible_condition": "sup_full_fw_DemodLightNormLoopTriv | sup_full_fw_flag == true && superposition_flag == true"
    },
    {
      "opt_name": "--sup_full_fw_ACJoinability",
      "opt_type": "categorical",
      "opt_domain": "true, false",
      "default_val": "false",
      "possible_condition": "sup_full_fw_ACJoinability | sup_full_fw_flag == true && superposition_flag == true"
    },
    {
      "opt_name": "--sup_full_fw_ACNormalisation",
      "opt_type": "categorical",
      "opt_domain": "true, false",
      "default_val": "false",
      "possible_condition": "sup_full_fw_ACNormalisation | sup_full_fw_flag == true && superposition_flag == true"
    }
  ],
  "sup_immed_fw_main": [
    {
      "opt_name": "--sup_immed_fw_main_flag",
      "opt_type": "categorical",
      "opt_domain": "true, false",
      "default_val": "true",
      "possible_condition": "sup_immed_fw_main_flag | superposition_flag == true"
    },
    {
      "opt_name": "--sup_immed_fw_main_Subsumption",
      "opt_type": "categorical",
      "opt_domain": "true, false",
      "default_val": "false",
      "possible_condition": "sup_immed_fw_main_Subsumption | sup_immed_fw_main_flag == true && superposition_flag == true"
    },
    {
      "opt_name": "--sup_immed_fw_main_SubsumptionRes",
      "opt_type": "categorical",
      "opt_domain": "true, false",
      "default_val": "false",
      "possible_condition": "sup_immed_fw_main_SubsumptionRes | sup_immed_fw_main_flag == true && superposition_flag == true"
    },
    {
      "opt_name": "--sup_immed_fw_main_UnitSubsAndRes",
      "opt_type": "categorical",
      "opt_domain": "true, false",
      "default_val": "false",
      "possible_condition": "sup_immed_fw_main_UnitSubsAndRes | sup_immed_fw_main_flag == true && superposition_flag == true"
    },
    {
      "opt_name": "--sup_immed_fw_main_Demod",
      "opt_type": "categorical",
      "opt_domain": "true, false",
      "default_val": "false",
      "possible_condition": "sup_immed_fw_main_Demod | sup_immed_fw_main_flag == true && superposition_flag == true"
    },
    {
      "opt_name": "--sup_immed_fw_main_DemodLoopTriv",
      "opt_type": "categorical",
      "opt_domain": "true, false",
      "default_val": "false",
      "possible_condition": "sup_immed_fw_main_DemodLoopTriv | sup_immed_fw_main_flag == true && superposition_flag == true"
    },
    {
      "opt_name": "--sup_immed_fw_main_LightNorm",
      "opt_type": "categorical",
      "opt_domain": "true, false",
      "default_val": "false",
      "possible_condition": "sup_immed_fw_main_LightNorm | sup_immed_fw_main_flag == true && superposition_flag == true"
    },
    {
      "opt_name": "--sup_immed_fw_main_DemodLightNormLoopTriv",
      "opt_type": "categorical",
      "opt_domain": "true, false",
      "default_val": "true",
      "possible_condition": "sup_immed_fw_main_DemodLightNormLoopTriv | sup_immed_fw_main_flag == true && superposition_flag == true"
    },
    {
      "opt_name": "--sup_immed_fw_main_ACJoinability",
      "opt_type": "categorical",
      "opt_domain": "true, false",
      "default_val": "false",
      "possible_condition": "sup_immed_fw_main_ACJoinability | sup_immed_fw_main_flag == true && superposition_flag == true"
    },
    {
      "opt_name": "--sup_immed_fw_main_ACNormalisation",
      "opt_type": "categorical",
      "opt_domain": "true, false",
      "default_val": "false",
      "possible_condition": "sup_immed_fw_main_ACNormalisation | sup_immed_fw_main_flag == true && superposition_flag == true"
    }
  ],
  "sup_immed_fw_immed": [
    {
      "opt_name": "--sup_immed_fw_immed_flag",
      "opt_type": "categorical",
      "opt_domain": "true, false",
      "default_val": "true",
      "possible_condition": "sup_immed_fw_immed_flag | superposition_flag == true"
    },
    {
      "opt_name": "--sup_immed_fw_immed_Subsumption",
      "opt_type": "categorical",
      "opt_domain": "true, false",
      "default_val": "false",
      "possible_condition": "sup_immed_fw_immed_Subsumption | sup_immed_fw_immed_flag == true && superposition_flag == true"
    },
    {
      "opt_name": "--sup_immed_fw_immed_SubsumptionRes",
      "opt_type": "categorical",
      "opt_domain": "true, false",
      "default_val": "false",
      "possible_condition": "sup_immed_fw_immed_SubsumptionRes | sup_immed_fw_immed_flag == true && superposition_flag == true"
    },
    {
      "opt_name": "--sup_immed_fw_immed_UnitSubsAndRes",
      "opt_type": "categorical",
      "opt_domain": "true, false",
      "default_val": "false",
      "possible_condition": "sup_immed_fw_immed_UnitSubsAndRes | sup_immed_fw_immed_flag == true && superposition_flag == true"
    },
    {
      "opt_name": "--sup_immed_fw_immed_Demod",
      "opt_type": "categorical",
      "opt_domain": "true, false",
      "default_val": "false",
      "possible_condition": "sup_immed_fw_immed_Demod | sup_immed_fw_immed_flag == true && superposition_flag == true"
    },
    {
      "opt_name": "--sup_immed_fw_immed_DemodLoopTriv",
      "opt_type": "categorical",
      "opt_domain": "true, false",
      "default_val": "false",
      "possible_condition": "sup_immed_fw_immed_DemodLoopTriv | sup_immed_fw_immed_flag == true && superposition_flag == true"
    },
    {
      "opt_name": "--sup_immed_fw_immed_LightNorm",
      "opt_type": "categorical",
      "opt_domain": "true, false",
      "default_val": "true",
      "possible_condition": "sup_immed_fw_immed_LightNorm | sup_immed_fw_immed_flag == true && superposition_flag == true"
    },
    {
      "opt_name": "--sup_immed_fw_immed_DemodLightNormLoopTriv",
      "opt_type": "categorical",
      "opt_domain": "true, false",
      "default_val": "false",
      "possible_condition": "sup_immed_fw_immed_DemodLightNormLoopTriv | sup_immed_fw_immed_flag == true && superposition_flag == true"
    },
    {
      "opt_name": "--sup_immed_fw_immed_ACJoinability",
      "opt_type": "categorical",
      "opt_domain": "true, false",
      "default_val": "false",
      "possible_condition": "sup_immed_fw_immed_ACJoinability | sup_immed_fw_immed_flag == true && superposition_flag == true"
    },
    {
      "opt_name": "--sup_immed_fw_immed_ACNormalisation",
      "opt_type": "categorical",
      "opt_domain": "true, false",
      "default_val": "true",
      "possible_condition": "sup_immed_fw_immed_ACNormalisation | sup_immed_fw_immed_flag == true && superposition_flag == true"
    }
  ],
  "sup_input_fw": [
    {
      "opt_name": "--sup_input_fw_flag",
      "opt_type": "categorical",
      "opt_domain": "true, false",
      "default_val": "true",
      "possible_condition": "sup_input_fw_flag | prep_sup_sim_sup == true || prep_sup_sim_all == true"
    },
    {
      "opt_name": "--sup_input_fw_Subsumption",
      "opt_type": "categorical",
      "opt_domain": "true, false",
      "default_val": "true",
      "possible_condition": "sup_input_fw_Subsumption | sup_input_fw_flag == true && prep_sup_sim_sup == true ||  sup_input_fw_flag == true && prep_sup_sim_all == true"
    },
    {
      "opt_name": "--sup_input_fw_SubsumptionRes",
      "opt_type": "categorical",
      "opt_domain": "true, false",
      "default_val": "false",
      "possible_condition": "sup_input_fw_SubsumptionRes | sup_input_fw_flag == true && prep_sup_sim_sup == true ||  sup_input_fw_flag == true && prep_sup_sim_all == true"
    },
    {
      "opt_name": "--sup_input_fw_UnitSubsAndRes",
      "opt_type": "categorical",
      "opt_domain": "true, false",
      "default_val": "false",
      "possible_condition": "sup_input_fw_UnitSubsAndRes | sup_input_fw_flag == true && prep_sup_sim_sup == true ||  sup_input_fw_flag == true && prep_sup_sim_all == true"
    },
    {
      "opt_name": "--sup_input_fw_Demod",
      "opt_type": "categorical",
      "opt_domain": "true, false",
      "default_val": "false",
      "possible_condition": "sup_input_fw_Demod | sup_input_fw_flag == true && prep_sup_sim_sup == true ||  sup_input_fw_flag == true && prep_sup_sim_all == true"
    },
    {
      "opt_name": "--sup_input_fw_DemodLoopTriv",
      "opt_type": "categorical",
      "opt_domain": "true, false",
      "default_val": "false",
      "possible_condition": "sup_input_fw_DemodLoopTriv | sup_input_fw_flag == true && prep_sup_sim_sup == true ||  sup_input_fw_flag == true && prep_sup_sim_all == true"
    },
    {
      "opt_name": "--sup_input_fw_LightNorm",
      "opt_type": "categorical",
      "opt_domain": "true, false",
      "default_val": "false",
      "possible_condition": "sup_input_fw_LightNorm | sup_input_fw_flag == true && prep_sup_sim_sup == true ||  sup_input_fw_flag == true && prep_sup_sim_all == true"
    },
    {
      "opt_name": "--sup_input_fw_DemodLightNormLoopTriv",
      "opt_type": "categorical",
      "opt_domain": "true, false",
      "default_val": "true",
      "possible_condition": "sup_input_fw_DemodLightNormLoopTriv | sup_input_fw_flag == true && prep_sup_sim_sup == true ||  sup_input_fw_flag == true && prep_sup_sim_all == true"
    },
    {
      "opt_name": "--sup_input_fw_ACJoinability",
      "opt_type": "categorical",
      "opt_domain": "true, false",
      "default_val": "false",
      "possible_condition": "sup_input_fw_ACJoinability | sup_input_fw_flag == true && prep_sup_sim_sup == true ||  sup_input_fw_flag == true && prep_sup_sim_all == true"
    },
    {
      "opt_name": "--sup_input_fw_ACNormalisation",
      "opt_type": "categorical",
      "opt_domain": "true, false",
      "default_val": "false",
      "possible_condition": "sup_input_fw_ACNormalisation | sup_input_fw_flag == true && prep_sup_sim_sup == true ||  sup_input_fw_flag == true && prep_sup_sim_all == true"
    }
  ],
  "sup_full_bw": [
    {
      "opt_name": "--sup_full_bw_flag",
      "opt_type": "categorical",
      "opt_domain": "true, false",
      "default_val": "true",
      "possible_condition": "sup_full_bw_flag | superposition_flag == true"
    },
    {
      "opt_name": "--sup_full_bw_Subsumption",
      "opt_type": "categorical",
      "opt_domain": "true, false",
      "default_val": "true",
      "possible_condition": "sup_full_bw_Subsumption | sup_full_bw_flag == true && superposition_flag == true"
    },
    {
      "opt_name": "--sup_full_bw_SubsumptionRes",
      "opt_type": "categorical",
      "opt_domain": "true, false",
      "default_val": "false",
      "possible_condition": "sup_full_bw_SubsumptionRes | sup_full_bw_flag == true && superposition_flag == true"
    },
    {
      "opt_name": "--sup_full_bw_UnitSubsAndRes",
      "opt_type": "categorical",
      "opt_domain": "true, false",
      "default_val": "false",
      "possible_condition": "sup_full_bw_UnitSubsAndRes | sup_full_bw_flag == true && superposition_flag == true"
    },
    {
      "opt_name": "--sup_full_bw_Demod",
      "opt_type": "categorical",
      "opt_domain": "true, false",
      "default_val": "false",
      "possible_condition": "sup_full_bw_Demod | sup_full_bw_flag == true && superposition_flag == true"
    }
  ],
  "sup_immed_bw_main": [
    {
      "opt_name": "--sup_immed_bw_main_flag",
      "opt_type": "categorical",
      "opt_domain": "true, false",
      "default_val": "true",
      "possible_condition": "sup_immed_bw_main_flag | superposition_flag == true"
    },
    {
      "opt_name": "--sup_immed_bw_main_Subsumption",
      "opt_type": "categorical",
      "opt_domain": "true, false",
      "default_val": "true",
      "possible_condition": "sup_immed_bw_main_Subsumption | sup_immed_bw_main_flag == true && superposition_flag == true"
    },
    {
      "opt_name": "--sup_immed_bw_main_SubsumptionRes",
      "opt_type": "categorical",
      "opt_domain": "true, false",
      "default_val": "false",
      "possible_condition": "sup_immed_bw_main_SubsumptionRes | sup_immed_bw_main_flag == true && superposition_flag == true"
    },
    {
      "opt_name": "--sup_immed_bw_main_UnitSubsAndRes",
      "opt_type": "categorical",
      "opt_domain": "true, false",
      "default_val": "false",
      "possible_condition": "sup_immed_bw_main_UnitSubsAndRes | sup_immed_bw_main_flag == true && superposition_flag == true"
    },
    {
      "opt_name": "--sup_immed_bw_main_Demod",
      "opt_type": "categorical",
      "opt_domain": "true, false",
      "default_val": "true",
      "possible_condition": "sup_immed_bw_main_Demod | sup_immed_bw_main_flag == true && superposition_flag == true"
    }
  ],
  "sup_immed_bw_immed": [
    {
      "opt_name": "--sup_immed_bw_immed_flag",
      "opt_type": "categorical",
      "opt_domain": "true, false",
      "default_val": "true",
      "possible_condition": "sup_immed_bw_immed_flag | superposition_flag == true"
    },
    {
      "opt_name": "--sup_immed_bw_immed_Subsumption",
      "opt_type": "categorical",
      "opt_domain": "true, false",
      "default_val": "false",
      "possible_condition": "sup_immed_bw_immed_Subsumption | sup_immed_bw_immed_flag == true && superposition_flag == true"
    },
    {
      "opt_name": "--sup_immed_bw_immed_SubsumptionRes",
      "opt_type": "categorical",
      "opt_domain": "true, false",
      "default_val": "false",
      "possible_condition": "sup_immed_bw_immed_SubsumptionRes | sup_immed_bw_immed_flag == true && superposition_flag == true"
    },
    {
      "opt_name": "--sup_immed_bw_immed_UnitSubsAndRes",
      "opt_type": "categorical",
      "opt_domain": "true, false",
      "default_val": "false",
      "possible_condition": "sup_immed_bw_immed_UnitSubsAndRes | sup_immed_bw_immed_flag == true && superposition_flag == true"
    },
    {
      "opt_name": "--sup_immed_bw_immed_Demod",
      "opt_type": "categorical",
      "opt_domain": "true, false",
      "default_val": "true",
      "possible_condition": "sup_immed_bw_immed_Demod | sup_immed_bw_immed_flag == true && superposition_flag == true"
    }
  ],
  "sup_input_bw": [
    {
      "opt_name": "--sup_input_bw_flag",
      "opt_type": "categorical",
      "opt_domain": "true, false",
      "default_val": "true",
      "possible_condition": "sup_input_bw_flag | prep_sup_sim_sup == true || prep_sup_sim_all == true"
    },
    {
      "opt_name": "--sup_input_bw_Subsumption",
      "opt_type": "categorical",
      "opt_domain": "true, false",
      "default_val": "false",
      "possible_condition": "sup_input_bw_Subsumption | sup_input_bw_flag == true && prep_sup_sim_sup == true ||  sup_input_bw_flag == true && prep_sup_sim_all == true"
    },
    {
      "opt_name": "--sup_input_bw_SubsumptionRes",
      "opt_type": "categorical",
      "opt_domain": "true, false",
      "default_val": "false",
      "possible_condition": "sup_input_bw_SubsumptionRes | sup_input_bw_flag == true && prep_sup_sim_sup == true ||  sup_input_bw_flag == true && prep_sup_sim_all == true"
    },
    {
      "opt_name": "--sup_input_bw_UnitSubsAndRes",
      "opt_type": "categorical",
      "opt_domain": "true, false",
      "default_val": "false",
      "possible_condition": "sup_input_bw_UnitSubsAndRes | sup_input_bw_flag == true && prep_sup_sim_sup == true ||  sup_input_bw_flag == true && prep_sup_sim_all == true"
    },
    {
      "opt_name": "--sup_input_bw_Demod",
      "opt_type": "categorical",
      "opt_domain": "true, false",
      "default_val": "true",
      "possible_condition": "sup_input_bw_Demod | sup_input_bw_flag == true && prep_sup_sim_sup == true ||  sup_input_bw_flag == true && prep_sup_sim_all == true"
    }
  ]
}
